com\evelinFuasto\projetoVotacoes\Entity\Pauta.class
com\evelinFuasto\projetoVotacoes\Repository\RegistroVotoRepository.class
com\evelinFuasto\projetoVotacoes\Repository\VotoRepository.class
com\evelinFuasto\projetoVotacoes\Service\RegistroVotoService.class
com\evelinFuasto\projetoVotacoes\ApiV1\Controller\VotoController.class
com\evelinFuasto\projetoVotacoes\Entity\Voto.class
com\evelinFuasto\projetoVotacoes\Enum\TipoOpcaoVoto.class
com\evelinFuasto\projetoVotacoes\Repository\PautaRepository.class
com\evelinFuasto\projetoVotacoes\ApiV1\Controller\PautaController.class
com\evelinFuasto\projetoVotacoes\MB\VotoMB.class
com\evelinFuasto\projetoVotacoes\Utils\Utils.class
com\evelinFuasto\projetoVotacoes\Service\OpcaoVotoService.class
com\evelinFuasto\projetoVotacoes\Entity\OpcaoVoto.class
com\evelinFuasto\projetoVotacoes\MB\PautaMB.class
com\evelinFuasto\projetoVotacoes\ApiV1\Response\CpfStatus.class
com\evelinFuasto\projetoVotacoes\Main.class
com\evelinFuasto\projetoVotacoes\Repository\OpcaoVotoRepository.class
com\evelinFuasto\projetoVotacoes\Entity\RegistroVoto.class
com\evelinFuasto\projetoVotacoes\Service\VotoService.class
com\evelinFuasto\projetoVotacoes\Service\PautaService.class
